Generalized Linear Models - Binomial GLM
…
Marginal effects

The divide-by-4 rule is the maximal marginal effect. The average marginal effects is the average of all slopes. This can be easily done with the marginaleffects package:

library(marginaleffects)

# all marginal effects
slopes(fit)
#> # A tibble: 100 × 14
#>    rowid term  estimate std.error statistic   p.value s.value conf.low conf.high
#>    <int> <chr>    <dbl>     <dbl>     <dbl>     <dbl>   <dbl>    <dbl>     <dbl>
#>  1     1 x      0.00403   0.00354      1.14   2.55e-1    1.97 -2.91e-3   0.0110 
#>  2     2 x      0.137     0.0277       4.95   7.47e-7   20.4   8.28e-2   0.191  
#>  3     3 x      0.0489    0.0213       2.30   2.15e-2    5.54  7.23e-3   0.0906 
#>  4     4 x      0.0383    0.0188       2.04   4.15e-2    4.59  1.48e-3   0.0750 
#>  5     5 x      0.222     0.0407       5.45   4.91e-8   24.3   1.42e-1   0.302  
#>  6     6 x      0.0526    0.0193       2.72   6.48e-3    7.27  1.47e-2   0.0905 
#>  7     7 x      0.0811    0.0229       3.54   3.98e-4   11.3   3.62e-2   0.126  
#>  8     8 x      0.199     0.0386       5.16   2.52e-7   21.9   1.23e-1   0.275  
#>  9     9 x      0.00353   0.00319      1.11   2.68e-1    1.90 -2.72e-3   0.00979
#> 10    10 x      0.0270    0.0136       1.99   4.68e-2    4.42  3.82e-4   0.0537 
#> # ℹ 90 more rows
#> # ℹ 5 more variables: predicted_lo <dbl>, predicted_hi <dbl>, predicted <dbl>,
#> #   y <int>, x <dbl>
…
Marginal effects

We can see the marginal effects (each, average or marginal) for the \(x1\) while fixing \(x2\) to the mean:

slopes(fit, newdata = data.frame(x1 = dat$x1, x2 = mean(dat$x2)))

#> # A tibble: 200 × 15
#>    rowid term  estimate std.error statistic p.value s.value conf.low conf.high
#>    <int> <chr>    <dbl>     <dbl>     <dbl>   <dbl>   <dbl>    <dbl>     <dbl>
#>  1     1 x1      0.0991    0.0624     1.59   0.112     3.16 -0.0232     0.221 
#>  2     2 x1      0.191     0.195      0.979  0.327     1.61 -0.191      0.573 
#>  3     3 x1      0.0805    0.0419     1.92   0.0546    4.20 -0.00157    0.163 
#>  4     4 x1      0.0555    0.0227     2.45   0.0145    6.11  0.0110     0.100 
#>  5     5 x1      0.0499    0.0204     2.45   0.0145    6.11  0.00990    0.0899
#>  6     6 x1      0.0998    0.0632     1.58   0.114     3.13 -0.0241     0.224 
#>  7     7 x1      0.135     0.110      1.23   0.219     2.19 -0.0803     0.350 
#>  8     8 x1      0.0605    0.0254     2.38   0.0174    5.84  0.0106     0.110 
#>  9     9 x1      0.220     0.241      0.913  0.361     1.47 -0.252      0.691 
#> 10    10 x1      0.152     0.134      1.13   0.258     1.95 -0.111      0.414 
#> # ℹ 190 more rows
#> # ℹ 6 more variables: predicted_lo <dbl>, predicted_hi <dbl>, predicted <dbl>,
#> #   x1 <dbl>, x2 <dbl>, y <int>
…
